…
boot_straps = 
  tibble(strap_number = 1:5000) |> 
  mutate(
    strap_sample = map(strap_number, \(i) boot_sample(df = weather_df))
  )

boot_straps
```

    ## # A tibble: 5,000 × 2
    ##    strap_number strap_sample      
    ##           <int> <list>            
    ##  1            1 <tibble [365 × 6]>
    ##  2            2 <tibble [365 × 6]>
    ##  3            3 <tibble [365 × 6]>
    ##  4            4 <tibble [365 × 6]>
    ##  5            5 <tibble [365 × 6]>
    ##  6            6 <tibble [365 × 6]>
    ##  7            7 <tibble [365 × 6]>
    ##  8            8 <tibble [365 × 6]>
    ##  9            9 <tibble [365 × 6]>
    ## 10           10 <tibble [365 × 6]>
    ## # ℹ 4,990 more rows
…
print(city_or_results)
```

    ## # A tibble: 47 × 5
    ## # Groups:   city_state [47]
    ##    city_state      odds_ratio lower_ci upper_ci  p.value
    ##    <chr>                <dbl>    <dbl>    <dbl>    <dbl>
    ##  1 Albuquerque, NM      1.77     0.825    3.76  1.39e- 1
    ##  2 Atlanta, GA          1.00     0.680    1.46  1.00e+ 0
    ##  3 Baltimore, MD        0.426    0.324    0.558 6.26e-10
    ##  4 Baton Rouge, LA      0.381    0.204    0.684 1.65e- 3
    ##  5 Birmingham, AL       0.870    0.571    1.31  5.11e- 1
    ##  6 Boston, MA           0.674    0.353    1.28  2.26e- 1
    ##  7 Buffalo, NY          0.521    0.288    0.936 2.90e- 2
    ##  8 Charlotte, NC        0.884    0.551    1.39  6.00e- 1
    ##  9 Chicago, IL          0.410    0.336    0.501 1.86e-18
    ## 10 Cincinnati, OH       0.400    0.231    0.667 6.49e- 4
    ## # ℹ 37 more rows
…
